{
	"emisor":{
		"nombre":"InvoiceUBL_14",
		"nit":"InvoiceUBL_12",
		"dv":"InvoiceUBL_DVEmisor",
		"calle":"InvoiceUBL_16",
		"cp":"AddressCityName",
		"ciudad":"InvoiceUBL_93",
		"estado":"InvoiceUBL_19",
		"regimen_fiscal":"InvoiceUBL_85",
		"perfil":"InvoiceUBL_11", 
		"responsabilidad":"InvoiceUBL_ETResponsa", 
		"website":"InvoiceUBL_15",
		"tipo_documento":"InvoiceUBL_11"
	},
	"receptor":{
		"nombre":"InvoiceUBL_25",
		"nit":"InvoiceUBL_24",
		"dv":"InvoiceUBL_DVReceptor", 
		"calle":"InvoiceUBL_32",
		"ciudad":"InvoiceUBL_114",
		"estado":"InvoiceUBL_35",
		"pais":"InvoiceUBL_37",
		"regimen_fiscal":"InvoiceUBL_26",
		"perfil":"InvoiceUBL_23", 
		"responsabilidad":"InvoiceUBL_RETResponsa",
		"tipo_documento":"InvoiceUBL_23"
	},
	"fecha_emision":"InvoiceIssueDate", 
	"fecha_vencimiento":"InvoiceUBLVencim_01", 
	"fecha":"InvoiceIssueDate", 
	"moneda":"currencyTagUBL", 
	"moneda_vcambio":"TargetCurrencyCode", 
	"subtotal":"InvoiceUBL_60", 
	"impuestos":"InvoiceUBL_63", 
	"descuentos":"InvoiceUBL_61", 
	"total":"InvoiceUBL_64", 
	"nota":"InvoiceUBL_06", 
	"orden_compra":"InvoiceUBL_81",
	"metodo_pago":"InvoiceUBL_08",
	"tipo_operacion":"InvoiceUBL_86",
	"round_cero":"REDONDEO_CERO", 
	"round_decimals":"REDONDEO_DECIMALES",
	"auto_calc":"AUTO_CALCULAR",
	"tipo_ambiente":"InvoiceUBL_01",
	"contingencia_clave":"InvCont_N1", 
	"contingencia_serie":"InvCont_N2", 
	"contingencia_folio":"InvCont_N3", 
	"contingencia_fecha":"InvCont_N4",
	"impuestos_locales":[
		{
			"impuesto":"ImpLocal_01", 
			"importe":"ImpLocal_02", 
			"tasa":"ImpLocal_03", 
			"clave":"ImpLocal_04", 
			"estado":"ImpLocal_05"
		}
	],
	"conceptos":[
		{
			"cantidad":"InvoicedQuantity",
			"unidad":"InvoiceUBL_38",
			"concepto":"InvoiceUBL_40",
			"pu":"InvoiceUBL_39",
			"desc":"InvoiceUBL_45",
			"impuesto":"InvoiceUBL_42", 
		    "importe":"InvoiceUBL_41", 
			"extra_impuestos":[
				{
					"impuesto":"ImpLocal_01", 
					"importe":"ImpLocal_02", 
					"tasa":"ImpLocal_03", 
					"clave":"ImpLocal_04", 
					"estado":"ImpLocal_05"
				}
			],
		}
	]
}
