{
	"folio":{
		"serie":"InvoiceUBL_04", 
		"folio":"InvoiceUBL_05"
	},
	"emisor":{
		"nombre":"InvoiceUBL_14",
		"nit":"InvoiceUBL_12",
		"dv":"InvoiceUBL_DVEmisor",
		"calle":"InvoiceUBL_16",
		"ciudad":"InvoiceUBL_20",
		"estado":"InvoiceUBL_19",
		"regimen_fiscal":"InvoiceUBL_10",
		"perfil":"InvoiceUBL_11", 
		"responsabilidad":"InvoiceUBL_ETResponsa",
		"tipo_documento":"InvoiceUBL_11",
		"email":"InvoiceUBL_116",
		"telefono":"InvoiceUBL_116"							 
	},
	"receptor":{
		"nombre":"InvoiceUBL_25",
		"nit":"InvoiceUBL_24",
		"dv":"InvoiceUBL_DVReceptor", 
		"calle":"InvoiceUBL_32",
		"ciudad":"InvoiceUBL_36",
		"estado":"InvoiceUBL_35",
		"pais":"InvoiceUBL_37",
		"regimen_fiscal":"InvoiceUBL_22",
		"perfil":"InvoiceUBL_23",
		"responsabilidad":"InvoiceUBL_RETResponsa",
		"tipo_documento":"InvoiceUBL_23",
		"email":"InvoiceUBL_142",
		"telefono":"InvoiceUBL_142"					
	},
	"fecha_emision":"InvoiceIssueDate", 
	"fecha_vencimiento":"InvoiceUBLVencim_01",									   
	"fecha":"InvoiceIssueDate", 
	"moneda":"currencyTagUBL", 
	"moneda_vcambio":"TargetCurrencyCode", 
	"subtotal":"InvoiceUBL_60", 
	"impuestos":"InvoiceUBL_63", 
	"descuentos":"InvoiceUBL_61", 
	"total":"InvoiceUBL_64", 
	"nota":"InvoiceUBL_06", 
	"metodo_pago":"InvoiceUBL_08",
	"forma_pago":"InvoiceUBL_FP",
	"vencimiento_pago":"InvoiceUBL_VP",							   
	"tipo_operacion":"InvoiceUBL_80",
	"orden_compra":"InvoiceUBL_88",
	"round_cero":"REDONDEO_CERO", 
	"round_decimals":"REDONDEO_DECIMALES",
	"auto_calc":"AUTO_CALCULAR",
	"tipo_ambiente":"InvoiceUBL_01",
	"contingencia_clave":"InvCont_N1", 
	"contingencia_serie":"InvCont_N2", 
	"contingencia_folio":"InvCont_N3", 
	"contingencia_fecha":"InvCont_N4",
	"impuestos_locales":[
		{
			"impuesto":"ImpLocal_01", 
			"importe":"ImpLocal_02", 
			"tasa":"ImpLocal_03", 
			"clave":"ImpLocal_04", 
			"estado":"ImpLocal_05"
		}
	],
	"conceptos":[
		{
			"cantidad":"InvoicedQuantity",
			"unidad":"InvoiceUBL_38",
			"ni":"InvoiceUBL_54",			
			"concepto":"InvoiceUBL_40",
			"pu":"InvoiceUBL_39",
			"desc":"InvoiceUBL_55",
			"impuesto":"InvoiceUBL_42", 
			"tasa":"InvoiceUBL_43", 
			"importe":"InvoiceUBL_144", 
			"total_impuesto":"InvoiceUBL_77"
		}
	], 
	"uuid":[
		{
			"seriefolio":"InvoiceUBL_70",
			"serie":"InvoiceUBL_70",
			"folio":"InvoiceUBL_70",
			"uuid":"InvoiceUBL_71",
			"fecha":"InvoiceUBL_72",
			"nota":"InvoiceUBL_75", 
			"total":"InvoiceUBL_74", 
			"impuesto":"InvoiceUBL_76"
		}
	]
}
