{
	"folio":{
		"serie":"InvoiceUBL_04", 
		"folio":"InvoiceUBL_05"
	},
	"emisor":{
		"nombre":"InvoiceUBL_14",
		"nit":"InvoiceUBL_12",
		"dv":"InvoiceUBL_DVEmisor",
		"calle":"InvoiceUBL_16",
		"cp":"InvoiceUBL_95",
		"ciudad":"InvoiceUBL_93",
		"pais":"InvoiceUBL_21",
		"estado":"InvoiceUBL_19",
		"regimen_fiscal":"InvoiceUBL_10",
		"perfil":"InvoiceUBL_11", 
		"responsabilidad":"InvoiceUBL_ETResponsa", 
		"website":"InvoiceUBL_15",
		"tipo_documento":"InvoiceUBL_11", 
		"email":"InvoiceUBL_96",
		"telefono":"InvoiceUBL_97"
	},
	"receptor":{
		"nombre":"InvoiceUBL_25",
		"nit":"InvoiceUBL_24",
		"dv":"InvoiceUBL_DVReceptor", 
		"calle":"InvoiceUBL_32",
		"ciudad":"InvoiceUBL_114",
		"estado":"InvoiceUBL_35",
		"pais":"InvoiceUBL_37",
		"regimen_fiscal":"InvoiceUBL_22",
		"perfil":"InvoiceUBL_23", 
		"responsabilidad":"InvoiceUBL_RETResponsa",
		"tipo_documento":"InvoiceUBL_23",
		"email":"InvoiceUBL_117",
		"telefono":"InvoiceUBL_118"
	},
	"fecha_emision":"InvoiceIssueDate", 
	"fecha_vencimiento":"InvoiceUBLVencim_01", 
	"fecha":"InvoiceIssueDate", 
	"moneda":"currencyTagUBL", 
	"moneda_vcambio":"TargetCurrencyCode", 
	"subtotal":"LegalMonetaryTotalLineExtensionAmount", 
	"impuestos":"InvoiceUBL_63", 
	"descuentos":"InvoiceUBL_61", 
	"total":"InvoiceUBL_64", 
	"nota":"InvoiceUBL_06", 
	"orden_compra":"InvoiceUBL_07",
	"tipo_operacion":"InvoiceUBL_02",
	"metodo_pago":"InvoiceUBL_08",
	"forma_pago":"InvoiceUBL_FP",
	"vencimiento_pago":"InvoiceUBL_VP",
	"round_cero":"REDONDEO_CERO", 
	"round_decimals":"REDONDEO_DECIMALES",
	"auto_calc":"AUTO_CALCULAR",
	"tipo_ambiente":"InvoiceUBL_01", 
	"tipo_factura":"TipoDeFacturaCode",
	"contingencia_clave":"InvCont_N1", 
	"contingencia_serie":"InvCont_N2", 
	"contingencia_folio":"InvCont_N3", 
	"contingencia_fecha":"InvCont_N4",
	"impuestos_locales":[
		{
			"impuesto":"ImpLocal_01", 
			"importe":"ImpLocal_02", 
			"tasa":"ImpLocal_03", 
			"clave":"ImpLocal_04", 
			"estado":"ImpLocal_05"
		}
	],
	"redondeos":[
		{
			"clave":"RedoLocal_01", 
			"importe":"RedoLocal_02"
		}
	],  
	"conceptos":[
		{
			"cantidad":"InvoicedQuantity",
			"unidad":"InvoiceUBL_38",
			"ni":"InvoiceUBL_148",
			"concepto":"InvoiceUBL_40",
			"pu":"InvoiceUBL_39",
			"desc":"InvoiceUBL_45",
			"impuesto":"InvoiceUBL_42", 
			"tasa":"InvoiceUBL_43", 
			"importe":"InvoiceUBL_41", 
			"total_impuesto":"InvoiceUBL_51"
		}
	]
}
