
 {
     "folio":{
         "serie":"SETP",
         "folio":"990000051"
 },  "emisor":{
         "nombre":"MOTOS DEL HUILA COMPANIA S.A.S",
         "nit":"901751429",
         "dv":"6",
         "calle":"Cr 4 # 3 - 29",
         "cp":"410001",
         "ciudad":"410001",
         "pais":"169",
         "estado":"41",
         "regimen_fiscal":"1",
         "perfil":"31",
         "responsabilidad":"O-47",
         "website":"www.conaltic.com",
         "tipo_documento":"31",
         "email":"motosdelhuila@hotmail.com"
     },
     "receptor":{
         "nombre":"CONSUMIDOR FINAL",
         "nit":"222222222222",
         "dv":"7",
         "calle":"CR 4  3  29",
         "ciudad":"41001",
         "estado":"41",
         "pais":"CO",
         "regimen_fiscal":"2",
         "perfil":"13",
         "responsabilidad":"R-99-PN",
         "tipo_documento":"13",
         "telefono":"3124567890",
         "email":"motosdelhuila@gmail.com",
         "cp":"410001"
     },
     "moneda":"COP",
     "moneda_vcambio":"1.00",
     "subtotal":"16806.72",
     "impuestos":"3193.28",
     "total":"20000.00",
     "tipo_operacion":"10",
     "fecha":"2024-08-31T09:02:33",
     "fecha_emision":"2024-08-31T09:02:33",
     "fecha_vencimiento":"2024-08-31T09:02:33",
     "vencimiento_pago":"2024-08-31T09:02:33",
     "forma_pago":"PUE",
     "condicionpago":"1",
     "metodo_pago":"10",
     "autogenfolios":"2",
     "impuestos_locales":[
         {
         "impuesto":"3193.28",
         "importe":"16806.72",
         "tasa":"19.00",
         "clave":"01"
         }
     ],
     "conceptos":[
       {
         "cantidad": "1",
         "unidad": "ZZ",
         "ni": "087200",
         "concepto": "GUA BOXER CT 2CA X1U",
         "pu": "16806.72",
         "desc": 0,
         "impuesto": "3193.28",
         "importe": "16806.72",
         "extra_impuestos":[
               {
                 "nombre":"IVA",
                 "tipo":"01",
                 "tasa":"19.00",
                 "importe":"16806.72",
                 "impuesto":"3193.28"
               }
         ]
       }

     ]
}